{
  "user": [
    {
      "id": 0,
      "firstName": "string",
      "lastName": "string",
      "username": "string",
      "city": "string",
      "country": "string",
      "email": "string",
      "phone": "string",
      "birthDay": "2020-07-01"
    },
    {
      "id": 1,
      "firstName": "Jane",
      "lastName": "Doe",
      "username": "jd",
      "city": "string",
      "country": "string",
      "email": "string",
      "phone": "string",
      "birthDay": "2020-07-01"
    },
    {
      "id": 2,
      "firstName": "Jane",
      "lastName": "Doe",
      "username": "jdoe",
      "city": "string",
      "country": "string",
      "email": "string",
      "phone": "string",
      "birthDay": "2020-07-01"
    },
    {
      "id": 3,
      "firstName": "Jane",
      "lastName": "Doe",
      "username": "j.doe",
      "city": "string",
      "country": "string",
      "email": "string",
      "phone": "string",
      "birthDay": "2020-07-01"
    },
    {
      "id": 4,
      "firstName": "Jane",
      "lastName": "Doe",
      "username": "janed",
      "city": "string",
      "country": "string",
      "email": "string",
      "phone": "string",
      "birthDay": "2020-07-01"
    },
    {
      "id": 5,
      "firstName": "Jane",
      "lastName": "Doe",
      "username": "jane.d",
      "city": "string",
      "country": "string",
      "email": "string",
      "phone": "string",
      "birthDay": "2020-07-01"
    },
    {
      "id": 6,
      "firstName": "Jane",
      "lastName": "Doe",
      "username": "jane.doe",
      "city": "string",
      "country": "string",
      "email": "string",
      "phone": "string",
      "birthDay": "2020-07-01"
    },
    {
      "id": 7,
      "firstName": "Jane",
      "lastName": "Doe",
      "username": "doe.jane",
      "city": "string",
      "country": "string",
      "email": "string",
      "phone": "string",
      "birthDay": "2020-07-01"
    },
    {
      "id": 8,
      "firstName": "Jane",
      "lastName": "Doe",
      "username": "doe_jane",
      "city": "string",
      "country": "string",
      "email": "string",
      "phone": "string",
      "birthDay": "2020-07-01"
    },
    {
      "id": 9,
      "firstName": "Jane",
      "lastName": "Doe",
      "username": "jane_doe",
      "city": "string",
      "country": "string",
      "email": "string",
      "phone": "string",
      "birthDay": "2020-07-01"
    },
    {
      "id": 10,
      "firstName": "Jane",
      "lastName": "Doe",
      "username": "jane_d",
      "city": "string",
      "country": "string",
      "email": "string",
      "phone": "string",
      "birthDay": "2020-07-01"
    },
    {
      "id": 11,
      "firstName": "Jane",
      "lastName": "Doe",
      "username": "j_doe",
      "city": "string",
      "country": "string",
      "email": "string",
      "phone": "string",
      "birthDay": "2020-07-01"
    },
    {
      "id": 12,
      "firstName": "Jane",
      "lastName": "Doe",
      "username": "j_d",
      "city": "string",
      "country": "string",
      "email": "string",
      "phone": "string",
      "birthDay": "2020-07-01"
    }
  ]
}